{
    "title": "MenuItem",
    "description": "A menuItem from the RMS database",
    "type": "object",
    "properties": {
        "catid": {
            "type": "integer"
        },
        "name": {
            "type": "string"
        },
        "catname": {
            "type": "string"
        },
        "id": {
            "description": "The unique identifier for a product",
            "type": "integer"
        },
        "saleprice": {
            "type": "number",
            "minimum": 0
        },
        "desc": {
            "type": ["string", "null"]
        },
        "productIds": {
            "type": "array",
            "minItems": 1,
            "items": {
                "oneOf": [{
                        "type": "integer"                       
                    }
                ]
            }
        }
    },
    "required": ["id", "catid", "saleprice", "name"]
}
